Spark Command: /usr/lib/jvm/java-8-openjdk/jre/bin/java -cp /home/spark/conf/:/home/spark/jars/* -Xmx1g org.apache.spark.deploy.worker.Worker --webui-port 8081 spark://mk-pc:7077
========================================
Using Spark's default log4j profile: org/apache/spark/log4j-defaults.properties
18/02/01 21:02:02 INFO Worker: Started daemon with process name: 5534@mk-pc
18/02/01 21:02:02 INFO SignalUtils: Registered signal handler for TERM
18/02/01 21:02:02 INFO SignalUtils: Registered signal handler for HUP
18/02/01 21:02:02 INFO SignalUtils: Registered signal handler for INT
18/02/01 21:02:02 WARN Utils: Your hostname, mk-pc resolves to a loopback address: 127.0.1.1; using 192.168.1.5 instead (on interface wlp3s0)
18/02/01 21:02:02 WARN Utils: Set SPARK_LOCAL_IP if you need to bind to another address
18/02/01 21:02:02 WARN NativeCodeLoader: Unable to load native-hadoop library for your platform... using builtin-java classes where applicable
18/02/01 21:02:02 INFO SecurityManager: Changing view acls to: mk
18/02/01 21:02:02 INFO SecurityManager: Changing modify acls to: mk
18/02/01 21:02:02 INFO SecurityManager: Changing view acls groups to: 
18/02/01 21:02:02 INFO SecurityManager: Changing modify acls groups to: 
18/02/01 21:02:02 INFO SecurityManager: SecurityManager: authentication disabled; ui acls disabled; users  with view permissions: Set(mk); groups with view permissions: Set(); users  with modify permissions: Set(mk); groups with modify permissions: Set()
18/02/01 21:02:03 INFO Utils: Successfully started service 'sparkWorker' on port 36883.
18/02/01 21:02:03 INFO Worker: Starting Spark worker 192.168.1.5:36883 with 4 cores, 6.7 GB RAM
18/02/01 21:02:03 INFO Worker: Running Spark version 2.2.1
18/02/01 21:02:03 INFO Worker: Spark home: /home/spark
18/02/01 21:02:03 INFO Utils: Successfully started service 'WorkerUI' on port 8081.
18/02/01 21:02:03 INFO WorkerWebUI: Bound WorkerWebUI to 0.0.0.0, and started at http://192.168.1.5:8081
18/02/01 21:02:03 INFO Worker: Connecting to master mk-pc:7077...
18/02/01 21:02:03 INFO TransportClientFactory: Successfully created connection to mk-pc/127.0.1.1:7077 after 35 ms (0 ms spent in bootstraps)
18/02/01 21:02:03 INFO Worker: Successfully registered with master spark://mk-pc:7077
18/02/01 21:04:32 INFO Worker: mk-pc:7077 Disassociated !
18/02/01 21:04:32 ERROR Worker: Connection to master failed! Waiting for master to reconnect...
18/02/01 21:04:32 INFO Worker: Connecting to master mk-pc:7077...
18/02/01 21:04:32 INFO Worker: mk-pc:7077 Disassociated !
18/02/01 21:04:32 ERROR Worker: Connection to master failed! Waiting for master to reconnect...
18/02/01 21:04:32 INFO Worker: Not spawning another attempt to register with the master, since there is an attempt scheduled already.
18/02/01 21:04:32 INFO TransportClientFactory: Found inactive connection to mk-pc/127.0.1.1:7077, creating a new one.
18/02/01 21:04:32 WARN Worker: Failed to connect to master mk-pc:7077
org.apache.spark.SparkException: Exception thrown in awaitResult: 
	at org.apache.spark.util.ThreadUtils$.awaitResult(ThreadUtils.scala:205)
	at org.apache.spark.rpc.RpcTimeout.awaitResult(RpcTimeout.scala:75)
	at org.apache.spark.rpc.RpcEnv.setupEndpointRefByURI(RpcEnv.scala:100)
	at org.apache.spark.rpc.RpcEnv.setupEndpointRef(RpcEnv.scala:108)
	at org.apache.spark.deploy.worker.Worker$$anonfun$org$apache$spark$deploy$worker$Worker$$tryRegisterAllMasters$1$$anon$1.run(Worker.scala:241)
	at java.util.concurrent.Executors$RunnableAdapter.call(Executors.java:511)
	at java.util.concurrent.FutureTask.run(FutureTask.java:266)
	at java.util.concurrent.ThreadPoolExecutor.runWorker(ThreadPoolExecutor.java:1149)
	at java.util.concurrent.ThreadPoolExecutor$Worker.run(ThreadPoolExecutor.java:624)
	at java.lang.Thread.run(Thread.java:748)
Caused by: java.io.IOException: Failed to connect to mk-pc/127.0.1.1:7077
	at org.apache.spark.network.client.TransportClientFactory.createClient(TransportClientFactory.java:232)
	at org.apache.spark.network.client.TransportClientFactory.createClient(TransportClientFactory.java:182)
	at org.apache.spark.rpc.netty.NettyRpcEnv.createClient(NettyRpcEnv.scala:197)
	at org.apache.spark.rpc.netty.Outbox$$anon$1.call(Outbox.scala:194)
	at org.apache.spark.rpc.netty.Outbox$$anon$1.call(Outbox.scala:190)
	... 4 more
Caused by: io.netty.channel.AbstractChannel$AnnotatedConnectException: Connection refused: mk-pc/127.0.1.1:7077
	at sun.nio.ch.SocketChannelImpl.checkConnect(Native Method)
	at sun.nio.ch.SocketChannelImpl.finishConnect(SocketChannelImpl.java:717)
	at io.netty.channel.socket.nio.NioSocketChannel.doFinishConnect(NioSocketChannel.java:257)
	at io.netty.channel.nio.AbstractNioChannel$AbstractNioUnsafe.finishConnect(AbstractNioChannel.java:291)
	at io.netty.channel.nio.NioEventLoop.processSelectedKey(NioEventLoop.java:631)
	at io.netty.channel.nio.NioEventLoop.processSelectedKeysOptimized(NioEventLoop.java:566)
	at io.netty.channel.nio.NioEventLoop.processSelectedKeys(NioEventLoop.java:480)
	at io.netty.channel.nio.NioEventLoop.run(NioEventLoop.java:442)
	at io.netty.util.concurrent.SingleThreadEventExecutor$2.run(SingleThreadEventExecutor.java:131)
	at io.netty.util.concurrent.DefaultThreadFactory$DefaultRunnableDecorator.run(DefaultThreadFactory.java:144)
	... 1 more
18/02/01 21:04:34 ERROR Worker: RECEIVED SIGNAL TERM
