Spark Command: /usr/lib/jvm/java-8-openjdk/jre/bin/java -cp /home/spark/conf/:/home/spark/jars/* -Xmx1g org.apache.spark.deploy.master.Master --host mk-pc --port 7077 --webui-port 8080
========================================
Using Spark's default log4j profile: org/apache/spark/log4j-defaults.properties
18/02/01 21:35:57 INFO Master: Started daemon with process name: 1094@mk-pc
18/02/01 21:35:57 INFO SignalUtils: Registered signal handler for TERM
18/02/01 21:35:57 INFO SignalUtils: Registered signal handler for HUP
18/02/01 21:35:57 INFO SignalUtils: Registered signal handler for INT
18/02/01 21:35:57 WARN Utils: Your hostname, mk-pc resolves to a loopback address: 127.0.1.1; using 192.168.1.5 instead (on interface wlp3s0)
18/02/01 21:35:57 WARN Utils: Set SPARK_LOCAL_IP if you need to bind to another address
18/02/01 21:35:59 WARN NativeCodeLoader: Unable to load native-hadoop library for your platform... using builtin-java classes where applicable
18/02/01 21:35:59 INFO SecurityManager: Changing view acls to: mk
18/02/01 21:35:59 INFO SecurityManager: Changing modify acls to: mk
18/02/01 21:35:59 INFO SecurityManager: Changing view acls groups to: 
18/02/01 21:35:59 INFO SecurityManager: Changing modify acls groups to: 
18/02/01 21:35:59 INFO SecurityManager: SecurityManager: authentication disabled; ui acls disabled; users  with view permissions: Set(mk); groups with view permissions: Set(); users  with modify permissions: Set(mk); groups with modify permissions: Set()
18/02/01 21:36:01 INFO Utils: Successfully started service 'sparkMaster' on port 7077.
18/02/01 21:36:01 INFO Master: Starting Spark master at spark://mk-pc:7077
18/02/01 21:36:01 INFO Master: Running Spark version 2.2.1
18/02/01 21:36:01 INFO Utils: Successfully started service 'MasterUI' on port 8080.
18/02/01 21:36:02 INFO MasterWebUI: Bound MasterWebUI to 0.0.0.0, and started at http://192.168.1.5:8080
18/02/01 21:36:02 INFO Utils: Successfully started service on port 6066.
18/02/01 21:36:02 INFO StandaloneRestServer: Started REST server for submitting applications on port 6066
18/02/01 21:36:02 INFO Master: I have been elected leader! New state: ALIVE
18/02/01 21:36:27 INFO Master: Registering worker 192.168.1.5:36289 with 4 cores, 6.7 GB RAM
18/02/01 21:38:08 ERROR Master: RECEIVED SIGNAL TERM
