Feb 01, 2018 9:45:58 PM com.sun.jersey.api.core.PackagesResourceConfig init
INFO: Scanning for root resource and provider classes in the packages:
  org.apache.hadoop.hdfs.server.namenode.web.resources
  org.apache.hadoop.hdfs.web.resources
Feb 01, 2018 9:45:59 PM com.sun.jersey.api.core.ScanningResourceConfig logClasses
INFO: Root resource classes found:
  class org.apache.hadoop.hdfs.server.namenode.web.resources.NamenodeWebHdfsMethods
Feb 01, 2018 9:45:59 PM com.sun.jersey.api.core.ScanningResourceConfig logClasses
INFO: Provider classes found:
  class org.apache.hadoop.hdfs.web.resources.ExceptionHandler
  class org.apache.hadoop.hdfs.web.resources.UserProvider
Feb 01, 2018 9:45:59 PM com.sun.jersey.server.impl.application.WebApplicationImpl _initiate
INFO: Initiating Jersey application, version 'Jersey: 1.9 09/02/2011 11:17 AM'
Feb 01, 2018 9:46:00 PM com.sun.jersey.spi.inject.Errors processErrorMessages
WARNING: The following warnings have been detected with resource and/or provider classes:
  WARNING: A sub-resource method, public javax.ws.rs.core.Response org.apache.hadoop.hdfs.server.namenode.web.resources.NamenodeWebHdfsMethods.postRoot(org.apache.hadoop.security.UserGroupInformation,org.apache.hadoop.hdfs.web.resources.DelegationParam,org.apache.hadoop.hdfs.web.resources.UserParam,org.apache.hadoop.hdfs.web.resources.DoAsParam,org.apache.hadoop.hdfs.web.resources.PostOpParam,org.apache.hadoop.hdfs.web.resources.ConcatSourcesParam,org.apache.hadoop.hdfs.web.resources.BufferSizeParam,org.apache.hadoop.hdfs.web.resources.ExcludeDatanodesParam,org.apache.hadoop.hdfs.web.resources.NewLengthParam) throws java.io.IOException,java.lang.InterruptedException, with URI template, "/", is treated as a resource method
  WARNING: A sub-resource method, public javax.ws.rs.core.Response org.apache.hadoop.hdfs.server.namenode.web.resources.NamenodeWebHdfsMethods.deleteRoot(org.apache.hadoop.security.UserGroupInformation,org.apache.hadoop.hdfs.web.resources.DelegationParam,org.apache.hadoop.hdfs.web.resources.UserParam,org.apache.hadoop.hdfs.web.resources.DoAsParam,org.apache.hadoop.hdfs.web.resources.DeleteOpParam,org.apache.hadoop.hdfs.web.resources.RecursiveParam,org.apache.hadoop.hdfs.web.resources.SnapshotNameParam) throws java.io.IOException,java.lang.InterruptedException, with URI template, "/", is treated as a resource method
  WARNING: A sub-resource method, public javax.ws.rs.core.Response org.apache.hadoop.hdfs.server.namenode.web.resources.NamenodeWebHdfsMethods.putRoot(org.apache.hadoop.security.UserGroupInformation,org.apache.hadoop.hdfs.web.resources.DelegationParam,org.apache.hadoop.hdfs.web.resources.UserParam,org.apache.hadoop.hdfs.web.resources.DoAsParam,org.apache.hadoop.hdfs.web.resources.PutOpParam,org.apache.hadoop.hdfs.web.resources.DestinationParam,org.apache.hadoop.hdfs.web.resources.OwnerParam,org.apache.hadoop.hdfs.web.resources.GroupParam,org.apache.hadoop.hdfs.web.resources.PermissionParam,org.apache.hadoop.hdfs.web.resources.OverwriteParam,org.apache.hadoop.hdfs.web.resources.BufferSizeParam,org.apache.hadoop.hdfs.web.resources.ReplicationParam,org.apache.hadoop.hdfs.web.resources.BlockSizeParam,org.apache.hadoop.hdfs.web.resources.ModificationTimeParam,org.apache.hadoop.hdfs.web.resources.AccessTimeParam,org.apache.hadoop.hdfs.web.resources.RenameOptionSetParam,org.apache.hadoop.hdfs.web.resources.CreateParentParam,org.apache.hadoop.hdfs.web.resources.TokenArgumentParam,org.apache.hadoop.hdfs.web.resources.AclPermissionParam,org.apache.hadoop.hdfs.web.resources.XAttrNameParam,org.apache.hadoop.hdfs.web.resources.XAttrValueParam,org.apache.hadoop.hdfs.web.resources.XAttrSetFlagParam,org.apache.hadoop.hdfs.web.resources.SnapshotNameParam,org.apache.hadoop.hdfs.web.resources.OldSnapshotNameParam,org.apache.hadoop.hdfs.web.resources.ExcludeDatanodesParam,org.apache.hadoop.hdfs.web.resources.CreateFlagParam,org.apache.hadoop.hdfs.web.resources.StoragePolicyParam) throws java.io.IOException,java.lang.InterruptedException, with URI template, "/", is treated as a resource method
  WARNING: A sub-resource method, public javax.ws.rs.core.Response org.apache.hadoop.hdfs.server.namenode.web.resources.NamenodeWebHdfsMethods.getRoot(org.apache.hadoop.security.UserGroupInformation,org.apache.hadoop.hdfs.web.resources.DelegationParam,org.apache.hadoop.hdfs.web.resources.UserParam,org.apache.hadoop.hdfs.web.resources.DoAsParam,org.apache.hadoop.hdfs.web.resources.GetOpParam,org.apache.hadoop.hdfs.web.resources.OffsetParam,org.apache.hadoop.hdfs.web.resources.LengthParam,org.apache.hadoop.hdfs.web.resources.RenewerParam,org.apache.hadoop.hdfs.web.resources.BufferSizeParam,java.util.List,org.apache.hadoop.hdfs.web.resources.XAttrEncodingParam,org.apache.hadoop.hdfs.web.resources.ExcludeDatanodesParam,org.apache.hadoop.hdfs.web.resources.FsActionParam,org.apache.hadoop.hdfs.web.resources.TokenKindParam,org.apache.hadoop.hdfs.web.resources.TokenServiceParam) throws java.io.IOException,java.lang.InterruptedException, with URI template, "/", is treated as a resource method
